PNRUSBEL9CEV<<MAKSIM<SERGEEVI3<<<<<<<<<<<<<<4016166334RUS9607251M<<<<<<<6160831780041<56
PNRUSBULAHTIN<<SERGEY<ALEKSANDROVI3<<<<<<<<<4616017149RUS8906061M<<<<<<<7403025046606<23
PNRUSPERMINOV<<ANTON<VIKTOROVI3<<<<<<<<<<<<<4016462325RUS8506199M<<<<<<<2130403780005<60
PNRUSGALKIN<<VLADIMIR<MIHAQLOVI3<<<<<<<<<<<<4518171584RUS6508292M<<<<<<<6160914770055<16
PNRUSJUKOV<<SERGEQ<KONSTANTINOVI3<<<<<<<<<<<4018494687RUS6809076M<<<<<<<6131005780066<18
PNRUS3EREDNI3ENKO<<ALEKSANDR<VASIL9EVI3<<<<<6017539359RUS7003173M<<<<<<<2150805610038<22